\relax 
\providecommand\hyper@newdestlabel[2]{}
\@writefile{toc}{\defcounter {refsection}{0}\relax }\@writefile{toc}{\contentsline {chapter}{\numberline {2}Nh\IeC {\~\uhorn }ng c\IeC {\^o}ng tr\IeC {\`\i }nh li\IeC {\^e}n quan}{11}{chapter.2}}
\@writefile{lof}{\defcounter {refsection}{0}\relax }\@writefile{lof}{\addvspace {10\p@ }}
\@writefile{lot}{\defcounter {refsection}{0}\relax }\@writefile{lot}{\addvspace {10\p@ }}
\newlabel{Chapter2}{{2}{11}{Những công trình liên quan}{chapter.2}{}}
\@writefile{toc}{\defcounter {refsection}{0}\relax }\@writefile{toc}{\contentsline {section}{\numberline {2.1}C\IeC {\'a}c ph\IeC {\uhorn }\IeC {\ohorn }ng ph\IeC {\'a}p khai th\IeC {\'a}c \IeC {\'y} ki\IeC {\'\ecircumflex }n ng\IeC {\uhorn }\IeC {\`\ohorn }i d\IeC {\`u}ng}{11}{section.2.1}}
\@writefile{toc}{\defcounter {refsection}{0}\relax }\@writefile{toc}{\contentsline {subsection}{\numberline {2.1.1}Ph\IeC {\^a}n l\IeC {\'\ohorn }p ch\IeC {\h u} quan}{11}{subsection.2.1.1}}
\@writefile{toc}{\defcounter {refsection}{0}\relax }\@writefile{toc}{\contentsline {subsection}{\numberline {2.1.2}Ph\IeC {\^a}n l\IeC {\'\ohorn }p quan \IeC {\dj }i\IeC {\h \ecircumflex }m}{12}{subsection.2.1.2}}
\@writefile{toc}{\defcounter {refsection}{0}\relax }\@writefile{toc}{\contentsline {section}{\numberline {2.2}Ph\IeC {\^a}n t\IeC {\'\i }ch quan \IeC {\dj }i\IeC {\h \ecircumflex }m m\IeC {\'\uhorn }c kh\IeC {\'\i }a c\IeC {\d a}nh}{13}{section.2.2}}
\@writefile{toc}{\defcounter {refsection}{0}\relax }\@writefile{toc}{\contentsline {subsection}{\numberline {2.2.1}R\IeC {\'u}t tr\IeC {\'\i }ch kh\IeC {\'\i }a c\IeC {\d a}nh - th\IeC {\d \uhorn }c th\IeC {\h \ecircumflex }}{13}{subsection.2.2.1}}
\@writefile{toc}{\defcounter {refsection}{0}\relax }\@writefile{toc}{\contentsline {subsubsection}{R\IeC {\'u}t tr\IeC {\'\i }ch d\IeC {\d \uhorn }a tr\IeC {\^e}n t\IeC {\`\acircumflex }n s\IeC {\'\ocircumflex } xu\IeC {\'\acircumflex }t hi\IeC {\d \ecircumflex }n c\IeC {\h u}a danh t\IeC {\`\uhorn } v\IeC {\`a} c\IeC {\d u}m danh t\IeC {\`\uhorn }}{13}{section*.7}}
\newlabel{PMI}{{2.1}{14}{Rút trích dựa trên tần số xuất hiện của danh từ và cụm danh từ}{equation.2.2.1}{}}
\@writefile{toc}{\defcounter {refsection}{0}\relax }\@writefile{toc}{\contentsline {subsubsection}{R\IeC {\'u}t tr\IeC {\'\i }ch b\IeC {\`\abreve }ng c\IeC {\'a}ch x\IeC {\'a}c \IeC {\dj }\IeC {\d i}nh m\IeC {\'\ocircumflex }i quan h\IeC {\d \ecircumflex } gi\IeC {\~\uhorn }a \IeC {\'y} ki\IeC {\'\ecircumflex }n \IeC {\dj }\IeC {\'a}nh gi\IeC {\'a} v\IeC {\`a} \IeC {\dj }\IeC {\'\ocircumflex }i t\IeC {\uhorn }\IeC {\d \ohorn }ng}{15}{section*.8}}
\@writefile{toc}{\defcounter {refsection}{0}\relax }\@writefile{toc}{\contentsline {subsubsection}{R\IeC {\'u}t tr\IeC {\'\i }ch s\IeC {\h \uhorn } d\IeC {\d u}ng ph\IeC {\uhorn }\IeC {\ohorn }ng ph\IeC {\'a}p h\IeC {\d o}c c\IeC {\'o} gi\IeC {\'a}m s\IeC {\'a}t}{15}{section*.9}}
\@writefile{toc}{\defcounter {refsection}{0}\relax }\@writefile{toc}{\contentsline {subsubsection}{R\IeC {\'u}t tr\IeC {\'\i }ch s\IeC {\h \uhorn } d\IeC {\d u}ng m\IeC {\^o} h\IeC {\`\i }nh ch\IeC {\h u} \IeC {\dj }\IeC {\`\ecircumflex }}{16}{section*.10}}
\@writefile{toc}{\defcounter {refsection}{0}\relax }\@writefile{toc}{\contentsline {subsubsection}{R\IeC {\'u}t tr\IeC {\'\i }ch s\IeC {\h \uhorn } d\IeC {\d u}ng \IeC {\'a}nh x\IeC {\d a} c\IeC {\'a}c kh\IeC {\'\i }a c\IeC {\d a}nh ti\IeC {\`\ecircumflex }m \IeC {\h \acircumflex }n}{18}{section*.11}}
\@writefile{toc}{\defcounter {refsection}{0}\relax }\@writefile{toc}{\contentsline {subsection}{\numberline {2.2.2}Ph\IeC {\^a}n l\IeC {\'\ohorn }p quan \IeC {\dj }i\IeC {\h \ecircumflex }m c\IeC {\h u}a kh\IeC {\'\i }a c\IeC {\d a}nh - th\IeC {\d \uhorn }c th\IeC {\h \ecircumflex }}{19}{subsection.2.2.2}}
\@writefile{toc}{\defcounter {refsection}{0}\relax }\@writefile{toc}{\contentsline {subsubsection}{Ph\IeC {\uhorn }\IeC {\ohorn }ng ph\IeC {\'a}p h\IeC {\d o}c c\IeC {\'o} gi\IeC {\'a}m s\IeC {\'a}t}{19}{section*.12}}
\@writefile{toc}{\defcounter {refsection}{0}\relax }\@writefile{toc}{\contentsline {subsubsection}{Ph\IeC {\uhorn }\IeC {\ohorn }ng ph\IeC {\'a}p d\IeC {\d \uhorn }a v\IeC {\`a}o t\IeC {\d \acircumflex }p t\IeC {\`\uhorn } v\IeC {\d \uhorn }ng}{20}{section*.13}}
\newlabel{aggfunc}{{2.2}{21}{Phương pháp dựa vào tập từ vựng}{equation.2.2.2}{}}
\@writefile{toc}{\defcounter {refsection}{0}\relax }\@writefile{toc}{\contentsline {section}{\numberline {2.3}Ph\IeC {\^a}n t\IeC {\'\i }ch quan \IeC {\dj }i\IeC {\h \ecircumflex }m m\IeC {\'\uhorn }c kh\IeC {\'\i }a c\IeC {\d a}nh cho s\IeC {\'a}ch}{21}{section.2.3}}
\@setckpt{Chapter2/chapter2}{
\setcounter{page}{22}
\setcounter{equation}{2}
\setcounter{enumi}{0}
\setcounter{enumii}{0}
\setcounter{enumiii}{0}
\setcounter{enumiv}{0}
\setcounter{footnote}{0}
\setcounter{mpfootnote}{0}
\setcounter{part}{0}
\setcounter{chapter}{2}
\setcounter{section}{3}
\setcounter{subsection}{0}
\setcounter{subsubsection}{0}
\setcounter{paragraph}{0}
\setcounter{subparagraph}{0}
\setcounter{figure}{0}
\setcounter{table}{0}
\setcounter{tabx@nest}{0}
\setcounter{listtotal}{0}
\setcounter{listcount}{0}
\setcounter{liststart}{0}
\setcounter{liststop}{0}
\setcounter{citecount}{0}
\setcounter{citetotal}{0}
\setcounter{multicitecount}{0}
\setcounter{multicitetotal}{0}
\setcounter{instcount}{60}
\setcounter{maxnames}{3}
\setcounter{minnames}{1}
\setcounter{maxitems}{3}
\setcounter{minitems}{1}
\setcounter{citecounter}{0}
\setcounter{savedcitecounter}{0}
\setcounter{uniquelist}{0}
\setcounter{uniquename}{0}
\setcounter{refsection}{0}
\setcounter{refsegment}{0}
\setcounter{maxextratitle}{0}
\setcounter{maxextratitleyear}{0}
\setcounter{maxextrayear}{0}
\setcounter{maxextraalpha}{0}
\setcounter{abbrvpenalty}{50}
\setcounter{highnamepenalty}{50}
\setcounter{lownamepenalty}{25}
\setcounter{maxparens}{3}
\setcounter{parenlevel}{0}
\setcounter{mincomprange}{10}
\setcounter{maxcomprange}{100000}
\setcounter{mincompwidth}{1}
\setcounter{afterword}{0}
\setcounter{savedafterword}{0}
\setcounter{annotator}{0}
\setcounter{savedannotator}{0}
\setcounter{author}{0}
\setcounter{savedauthor}{0}
\setcounter{bookauthor}{0}
\setcounter{savedbookauthor}{0}
\setcounter{commentator}{0}
\setcounter{savedcommentator}{0}
\setcounter{editor}{0}
\setcounter{savededitor}{0}
\setcounter{editora}{0}
\setcounter{savededitora}{0}
\setcounter{editorb}{0}
\setcounter{savededitorb}{0}
\setcounter{editorc}{0}
\setcounter{savededitorc}{0}
\setcounter{foreword}{0}
\setcounter{savedforeword}{0}
\setcounter{holder}{0}
\setcounter{savedholder}{0}
\setcounter{introduction}{0}
\setcounter{savedintroduction}{0}
\setcounter{namea}{0}
\setcounter{savednamea}{0}
\setcounter{nameb}{0}
\setcounter{savednameb}{0}
\setcounter{namec}{0}
\setcounter{savednamec}{0}
\setcounter{translator}{0}
\setcounter{savedtranslator}{0}
\setcounter{shortauthor}{0}
\setcounter{savedshortauthor}{0}
\setcounter{shorteditor}{0}
\setcounter{savedshorteditor}{0}
\setcounter{labelname}{0}
\setcounter{savedlabelname}{0}
\setcounter{institution}{0}
\setcounter{savedinstitution}{0}
\setcounter{lista}{0}
\setcounter{savedlista}{0}
\setcounter{listb}{0}
\setcounter{savedlistb}{0}
\setcounter{listc}{0}
\setcounter{savedlistc}{0}
\setcounter{listd}{0}
\setcounter{savedlistd}{0}
\setcounter{liste}{0}
\setcounter{savedliste}{0}
\setcounter{listf}{0}
\setcounter{savedlistf}{0}
\setcounter{location}{0}
\setcounter{savedlocation}{0}
\setcounter{organization}{0}
\setcounter{savedorganization}{0}
\setcounter{origlocation}{0}
\setcounter{savedoriglocation}{0}
\setcounter{origpublisher}{0}
\setcounter{savedorigpublisher}{0}
\setcounter{publisher}{0}
\setcounter{savedpublisher}{0}
\setcounter{language}{0}
\setcounter{savedlanguage}{0}
\setcounter{pageref}{0}
\setcounter{savedpageref}{0}
\setcounter{textcitecount}{0}
\setcounter{textcitetotal}{0}
\setcounter{textcitemaxnames}{0}
\setcounter{biburlnumpenalty}{0}
\setcounter{biburlucpenalty}{0}
\setcounter{biburllcpenalty}{0}
\setcounter{smartand}{1}
\setcounter{bbx:relatedcount}{0}
\setcounter{bbx:relatedtotal}{0}
\setcounter{Item}{0}
\setcounter{Hfootnote}{0}
\setcounter{bookmark@seq@number}{31}
\setcounter{lstnumber}{1}
\setcounter{parentequation}{0}
\setcounter{float@type}{16}
\setcounter{algorithm}{0}
\setcounter{ALG@line}{0}
\setcounter{ALG@rem}{0}
\setcounter{ALG@nested}{0}
\setcounter{ALG@Lnr}{2}
\setcounter{ALG@blocknr}{10}
\setcounter{ALG@storecount}{0}
\setcounter{ALG@tmpcounter}{0}
\setcounter{section@level}{1}
\setcounter{lstlisting}{0}
}
