\boolfalse {citerequest}\boolfalse {citetracker}\boolfalse {pagetracker}\boolfalse {backtracker}\relax 
\defcounter {refsection}{0}\relax 
\contentsline {chapter}{L\IeC {\`\ohorn }i cam \IeC {\dj }oan}{ii}{chapter*.1}
\defcounter {refsection}{0}\relax 
\contentsline {chapter}{L\IeC {\`\ohorn }i c\IeC {\h a}m \IeC {\ohorn }n}{iii}{chapter*.2}
\defcounter {refsection}{0}\relax 
\contentsline {chapter}{\IeC {\DJ }\IeC {\`\ecircumflex } c\IeC {\uhorn }\IeC {\ohorn }ng chi ti\IeC {\'\ecircumflex }t}{viii}{chapter*.2}
\defcounter {refsection}{0}\relax 
\contentsline {chapter}{M\IeC {\d u}c l\IeC {\d u}c}{ix}{chapter*.3}
\defcounter {refsection}{0}\relax 
\contentsline {chapter}{\numberline {1}Gi\IeC {\'\ohorn }i thi\IeC {\d \ecircumflex }u}{1}{chapter.1}
\defcounter {refsection}{0}\relax 
\contentsline {section}{\numberline {1.1}Ph\IeC {\^a}n t\IeC {\'\i }ch quan \IeC {\dj }i\IeC {\h \ecircumflex }m}{1}{section.1.1}
\defcounter {refsection}{0}\relax 
\contentsline {subsection}{\numberline {1.1.1}B\IeC {\`a}i to\IeC {\'a}n ph\IeC {\^a}n t\IeC {\'\i }ch quan \IeC {\dj }i\IeC {\h \ecircumflex }m}{1}{subsection.1.1.1}
\defcounter {refsection}{0}\relax 
\contentsline {subsection}{\numberline {1.1.2}C\IeC {\'a}c m\IeC {\'\uhorn }c \IeC {\dj }\IeC {\d \ocircumflex } ph\IeC {\^a}n t\IeC {\'\i }ch quan \IeC {\dj }i\IeC {\h \ecircumflex }m}{2}{subsection.1.1.2}
\defcounter {refsection}{0}\relax 
\contentsline {section}{\numberline {1.2}Ph\IeC {\^a}n t\IeC {\'\i }ch quan \IeC {\dj }i\IeC {\h \ecircumflex }m m\IeC {\'\uhorn }c kh\IeC {\'\i }a c\IeC {\d a}nh}{3}{section.1.2}
\defcounter {refsection}{0}\relax 
\contentsline {subsection}{\numberline {1.2.1}B\IeC {\`a}i to\IeC {\'a}n ph\IeC {\^a}n t\IeC {\'\i }ch quan \IeC {\dj }i\IeC {\h \ecircumflex }m m\IeC {\'\uhorn }c kh\IeC {\'\i }a c\IeC {\d a}nh}{3}{subsection.1.2.1}
\defcounter {refsection}{0}\relax 
\contentsline {subsection}{\numberline {1.2.2}S\IeC {\d \uhorn } c\IeC {\`\acircumflex }n thi\IeC {\'\ecircumflex }t c\IeC {\h u}a b\IeC {\`a}i to\IeC {\'a}n}{4}{subsection.1.2.2}
\defcounter {refsection}{0}\relax 
\contentsline {subsection}{\numberline {1.2.3}C\IeC {\^o}ng vi\IeC {\d \ecircumflex }c ch\IeC {\'\i }nh c\IeC {\h u}a ph\IeC {\^a}n t\IeC {\'\i }ch quan \IeC {\dj }i\IeC {\h \ecircumflex }m m\IeC {\'\uhorn }c kh\IeC {\'\i }a c\IeC {\d a}nh}{4}{subsection.1.2.3}
\defcounter {refsection}{0}\relax 
\contentsline {section}{\numberline {1.3}B\IeC {\`a}i to\IeC {\'a}n ph\IeC {\^a}n t\IeC {\'\i }ch quan \IeC {\dj }i\IeC {\h \ecircumflex }m m\IeC {\'\uhorn }c kh\IeC {\'\i }a c\IeC {\d a}nh v\IeC {\`\ecircumflex } s\IeC {\'a}ch}{5}{section.1.3}
\defcounter {refsection}{0}\relax 
\contentsline {subsection}{\numberline {1.3.1}M\IeC {\^o} t\IeC {\h a} b\IeC {\`a}i to\IeC {\'a}n}{5}{subsection.1.3.1}
\defcounter {refsection}{0}\relax 
\contentsline {subsection}{\numberline {1.3.2}Nh\IeC {\~\uhorn }ng c\IeC {\^o}ng tr\IeC {\`\i }nh nghi\IeC {\^e}n c\IeC {\'\uhorn }u tr\IeC {\uhorn }\IeC {\'\ohorn }c \IeC {\dj }\IeC {\'o}}{5}{subsection.1.3.2}
\defcounter {refsection}{0}\relax 
\contentsline {subsection}{\numberline {1.3.3}\IeC {\DJ }\IeC {\d \ocircumflex }ng l\IeC {\d \uhorn }c nghi\IeC {\^e}n c\IeC {\'\uhorn }u}{6}{subsection.1.3.3}
\defcounter {refsection}{0}\relax 
\contentsline {section}{\numberline {1.4}M\IeC {\d u}c ti\IeC {\^e}u c\IeC {\h u}a kh\IeC {\'o}a lu\IeC {\d \acircumflex }n}{6}{section.1.4}
\defcounter {refsection}{0}\relax 
\contentsline {section}{\numberline {1.5}\IeC {\DJ }\IeC {\'o}ng g\IeC {\'o}p c\IeC {\h u}a kh\IeC {\'o}a lu\IeC {\d \acircumflex }n}{7}{section.1.5}
\defcounter {refsection}{0}\relax 
\contentsline {section}{\numberline {1.6}C\IeC {\'\acircumflex }u tr\IeC {\'u}c kh\IeC {\'o}a lu\IeC {\d \acircumflex }n}{7}{section.1.6}
\defcounter {refsection}{0}\relax 
\contentsline {chapter}{T\IeC {\'o}m t\IeC {\'\abreve }t}{1}{chapter*.6}
\defcounter {refsection}{0}\relax 
\contentsline {chapter}{\numberline {2}Nh\IeC {\~\uhorn }ng c\IeC {\^o}ng tr\IeC {\`\i }nh li\IeC {\^e}n quan}{9}{chapter.2}
\defcounter {refsection}{0}\relax 
\contentsline {section}{\numberline {2.1}C\IeC {\'a}c ph\IeC {\uhorn }\IeC {\ohorn }ng ph\IeC {\'a}p khai th\IeC {\'a}c \IeC {\'y} ki\IeC {\'\ecircumflex }n ng\IeC {\uhorn }\IeC {\`\ohorn }i d\IeC {\`u}ng}{9}{section.2.1}
\defcounter {refsection}{0}\relax 
\contentsline {subsection}{\numberline {2.1.1}Ph\IeC {\^a}n l\IeC {\'\ohorn }p ch\IeC {\h u} quan}{9}{subsection.2.1.1}
\defcounter {refsection}{0}\relax 
\contentsline {subsection}{\numberline {2.1.2}Ph\IeC {\^a}n l\IeC {\'\ohorn }p quan \IeC {\dj }i\IeC {\h \ecircumflex }m}{10}{subsection.2.1.2}
\defcounter {refsection}{0}\relax 
\contentsline {section}{\numberline {2.2}Ph\IeC {\^a}n t\IeC {\'\i }ch quan \IeC {\dj }i\IeC {\h \ecircumflex }m m\IeC {\'\uhorn }c kh\IeC {\'\i }a c\IeC {\d a}nh}{11}{section.2.2}
\defcounter {refsection}{0}\relax 
\contentsline {subsection}{\numberline {2.2.1}R\IeC {\'u}t tr\IeC {\'\i }ch kh\IeC {\'\i }a c\IeC {\d a}nh - th\IeC {\d \uhorn }c th\IeC {\h \ecircumflex }}{11}{subsection.2.2.1}
\defcounter {refsection}{0}\relax 
\contentsline {subsubsection}{R\IeC {\'u}t tr\IeC {\'\i }ch d\IeC {\d \uhorn }a tr\IeC {\^e}n t\IeC {\`\acircumflex }n s\IeC {\'\ocircumflex } xu\IeC {\'\acircumflex }t hi\IeC {\d \ecircumflex }n c\IeC {\h u}a danh t\IeC {\`\uhorn } v\IeC {\`a} c\IeC {\d u}m danh t\IeC {\`\uhorn }}{11}{section*.7}
\defcounter {refsection}{0}\relax 
\contentsline {subsubsection}{R\IeC {\'u}t tr\IeC {\'\i }ch b\IeC {\`\abreve }ng c\IeC {\'a}ch x\IeC {\'a}c \IeC {\dj }\IeC {\d i}nh m\IeC {\'\ocircumflex }i quan h\IeC {\d \ecircumflex } gi\IeC {\~\uhorn }a \IeC {\'y} ki\IeC {\'\ecircumflex }n \IeC {\dj }\IeC {\'a}nh gi\IeC {\'a} v\IeC {\`a} \IeC {\dj }\IeC {\'\ocircumflex }i t\IeC {\uhorn }\IeC {\d \ohorn }ng}{13}{section*.8}
\defcounter {refsection}{0}\relax 
\contentsline {subsubsection}{R\IeC {\'u}t tr\IeC {\'\i }ch s\IeC {\h \uhorn } d\IeC {\d u}ng ph\IeC {\uhorn }\IeC {\ohorn }ng ph\IeC {\'a}p h\IeC {\d o}c c\IeC {\'o} gi\IeC {\'a}m s\IeC {\'a}t}{13}{section*.9}
\defcounter {refsection}{0}\relax 
\contentsline {subsubsection}{R\IeC {\'u}t tr\IeC {\'\i }ch s\IeC {\h \uhorn } d\IeC {\d u}ng m\IeC {\^o} h\IeC {\`\i }nh ch\IeC {\h u} \IeC {\dj }\IeC {\`\ecircumflex }}{14}{section*.10}
\defcounter {refsection}{0}\relax 
\contentsline {subsubsection}{R\IeC {\'u}t tr\IeC {\'\i }ch s\IeC {\h \uhorn } d\IeC {\d u}ng \IeC {\'a}nh x\IeC {\d a} c\IeC {\'a}c kh\IeC {\'\i }a c\IeC {\d a}nh ti\IeC {\`\ecircumflex }m \IeC {\h \acircumflex }n}{16}{section*.11}
\defcounter {refsection}{0}\relax 
\contentsline {subsection}{\numberline {2.2.2}Ph\IeC {\^a}n l\IeC {\'\ohorn }p quan \IeC {\dj }i\IeC {\h \ecircumflex }m c\IeC {\h u}a kh\IeC {\'\i }a c\IeC {\d a}nh - th\IeC {\d \uhorn }c th\IeC {\h \ecircumflex }}{17}{subsection.2.2.2}
\defcounter {refsection}{0}\relax 
\contentsline {subsubsection}{Ph\IeC {\uhorn }\IeC {\ohorn }ng ph\IeC {\'a}p h\IeC {\d o}c c\IeC {\'o} gi\IeC {\'a}m s\IeC {\'a}t}{17}{section*.12}
\defcounter {refsection}{0}\relax 
\contentsline {subsubsection}{Ph\IeC {\uhorn }\IeC {\ohorn }ng ph\IeC {\'a}p d\IeC {\d \uhorn }a v\IeC {\`a}o t\IeC {\d \acircumflex }p t\IeC {\`\uhorn } v\IeC {\d \uhorn }ng}{18}{section*.13}
\defcounter {refsection}{0}\relax 
\contentsline {chapter}{\numberline {3}T\IeC {\d a}o ng\IeC {\~\uhorn } li\IeC {\d \ecircumflex }u hu\IeC {\'\acircumflex }n luy\IeC {\d \ecircumflex }n}{20}{chapter.3}
\defcounter {refsection}{0}\relax 
\contentsline {section}{\numberline {3.1}Thu th\IeC {\d \acircumflex }p b\IeC {\`\i }nh lu\IeC {\d \acircumflex }n t\IeC {\`\uhorn } Tiki}{20}{section.3.1}
\defcounter {refsection}{0}\relax 
\contentsline {subsection}{\numberline {3.1.1}Thu th\IeC {\d \acircumflex }p c\IeC {\'a}c \IeC {\dj }\IeC {\uhorn }\IeC {\`\ohorn }ng d\IeC {\~\acircumflex }n v\IeC {\`\ecircumflex } s\IeC {\'a}ch tr\IeC {\^e}n Tiki}{21}{subsection.3.1.1}
\defcounter {refsection}{0}\relax 
\contentsline {subsection}{\numberline {3.1.2}R\IeC {\'u}t ra c\IeC {\'a}c t\IeC {\d \acircumflex }p tin JSON}{22}{subsection.3.1.2}
\defcounter {refsection}{0}\relax 
\contentsline {subsection}{\numberline {3.1.3}L\IeC {\uhorn }u th\IeC {\^o}ng tin xu\IeC {\'\ocircumflex }ng c\IeC {\ohorn } s\IeC {\h \ohorn } d\IeC {\~\uhorn } li\IeC {\d \ecircumflex }u}{24}{subsection.3.1.3}
\defcounter {refsection}{0}\relax 
\contentsline {section}{\numberline {3.2}Ch\IeC {\d o}n d\IeC {\~\uhorn } li\IeC {\d \ecircumflex }u g\IeC {\'a}n nh\IeC {\~a}n}{24}{section.3.2}
\defcounter {refsection}{0}\relax 
\contentsline {section}{\numberline {3.3}X\IeC {\'a}c \IeC {\dj }\IeC {\d i}nh c\IeC {\'a}c kh\IeC {\'\i }a c\IeC {\d a}nh c\IeC {\h u}a th\IeC {\d \uhorn }c th\IeC {\h \ecircumflex } s\IeC {\'a}ch}{24}{section.3.3}
\defcounter {refsection}{0}\relax 
\contentsline {section}{\numberline {3.4}C\IeC {\'a}ch th\IeC {\'\uhorn }c g\IeC {\'a}n nh\IeC {\~a}n}{25}{section.3.4}
\defcounter {refsection}{0}\relax 
\contentsline {chapter}{\numberline {4}X\IeC {\^a}y d\IeC {\d \uhorn }ng ch\IeC {\uhorn }\IeC {\ohorn }ng tr\IeC {\`\i }nh ph\IeC {\^a}n t\IeC {\'\i }ch quan \IeC {\dj }i\IeC {\h \ecircumflex }m v\IeC {\`\ecircumflex } s\IeC {\'a}ch}{26}{chapter.4}
\defcounter {refsection}{0}\relax 
\contentsline {section}{\numberline {4.1}Thi\IeC {\'\ecircumflex }t k\IeC {\'\ecircumflex } c\IeC {\ohorn } s\IeC {\h \ohorn } d\IeC {\~\uhorn } li\IeC {\d \ecircumflex }u}{26}{section.4.1}
\defcounter {refsection}{0}\relax 
\contentsline {section}{\numberline {4.2}Hu\IeC {\'\acircumflex }n luy\IeC {\d \ecircumflex }n g\IeC {\'a}n nh\IeC {\~a}n t\IeC {\d \uhorn } \IeC {\dj }\IeC {\d \ocircumflex }ng}{29}{section.4.2}
\defcounter {refsection}{0}\relax 
\contentsline {subsection}{\numberline {4.2.1}Chuy\IeC {\h \ecircumflex }n b\IeC {\`\i }nh lu\IeC {\d \acircumflex }n sang vector}{29}{subsection.4.2.1}
\defcounter {refsection}{0}\relax 
\contentsline {subsection}{\numberline {4.2.2}Ph\IeC {\^a}n l\IeC {\'\ohorn }p b\IeC {\`\i }nh lu\IeC {\d \acircumflex }n}{30}{subsection.4.2.2}
\defcounter {refsection}{0}\relax 
\contentsline {chapter}{\numberline {5}K\IeC {\'\ecircumflex }t lu\IeC {\d \acircumflex }n}{38}{chapter.5}
\defcounter {refsection}{0}\relax 
\contentsline {section}{\numberline {5.1}C\IeC {\'a}c k\IeC {\'\ecircumflex }t qu\IeC {\h a} \IeC {\dj }\IeC {\d a}t \IeC {\dj }\IeC {\uhorn }\IeC {\d \ohorn }c}{38}{section.5.1}
\defcounter {refsection}{0}\relax 
\contentsline {section}{\numberline {5.2}Nh\IeC {\~\uhorn }ng h\IeC {\d a}n ch\IeC {\'\ecircumflex }}{40}{section.5.2}
\defcounter {refsection}{0}\relax 
\contentsline {section}{\numberline {5.3}H\IeC {\uhorn }\IeC {\'\ohorn }ng ph\IeC {\'a}t tri\IeC {\h \ecircumflex }n trong t\IeC {\uhorn }\IeC {\ohorn }ng lai}{41}{section.5.3}
\defcounter {refsection}{0}\relax 
\contentsline {chapter}{T\IeC {\`a}i li\IeC {\d \ecircumflex }u tham kh\IeC {\h a}o}{43}{chapter*.14}
