\boolfalse {citerequest}\boolfalse {citetracker}\boolfalse {pagetracker}\boolfalse {backtracker}\relax 
\defcounter {refsection}{0}\relax 
\addvspace {10\p@ }
\defcounter {refsection}{0}\relax 
\addvspace {10\p@ }
\defcounter {refsection}{0}\relax 
\addvspace {10\p@ }
\defcounter {refsection}{0}\relax 
\addvspace {10\p@ }
\defcounter {refsection}{0}\relax 
\contentsline {table}{\numberline {4.1}{\ignorespaces Ph\IeC {\^a}n b\IeC {\'\ocircumflex } d\IeC {\~\uhorn } li\IeC {\d \ecircumflex }u cho t\IeC {\d \acircumflex }p hu\IeC {\'\acircumflex }n luy\IeC {\d \ecircumflex }n}}{35}{table.4.1}
\defcounter {refsection}{0}\relax 
\contentsline {table}{\numberline {4.2}{\ignorespaces Ph\IeC {\^a}n b\IeC {\'\ocircumflex } d\IeC {\~\uhorn } li\IeC {\d \ecircumflex }u cho t\IeC {\d \acircumflex }p ki\IeC {\h \ecircumflex }m \IeC {\dj }\IeC {\d i}nh}}{36}{table.4.2}
\defcounter {refsection}{0}\relax 
\addvspace {10\p@ }
\defcounter {refsection}{0}\relax 
\contentsline {table}{\numberline {5.1}{\ignorespaces K\IeC {\'\ecircumflex }t qu\IeC {\h a} c\IeC {\h u}a qu\IeC {\'a} tr\IeC {\`\i }nh ph\IeC {\^a}n l\IeC {\'\ohorn }p}}{39}{table.5.1}
