\BOOKMARK [0][-]{chapter*.1}{\376\377\000L\036\335\000i\000\040\000c\000a\000m\000\040\001\021\000o\000a\000n}{}% 1
\BOOKMARK [0][-]{chapter*.2}{\376\377\000L\036\335\000i\000\040\000c\036\243\000m\000\040\001\241\000n}{}% 2
\BOOKMARK [0][-]{chapter*.2}{\376\377\001\020\036\301\000\040\000c\001\260\001\241\000n\000g\000\040\000c\000h\000i\000\040\000t\000i\036\277\000t}{}% 3
\BOOKMARK [0][-]{chapter*.3}{\376\377\000M\036\345\000c\000\040\000l\036\345\000c}{}% 4
\BOOKMARK [0][-]{chapter*.6}{\376\377\000T\000\363\000m\000\040\000t\036\257\000t}{}% 5
\BOOKMARK [0][-]{chapter.1}{\376\377\000G\000i\036\333\000i\000\040\000t\000h\000i\036\307\000u}{}% 6
\BOOKMARK [1][-]{section.1.1}{\376\377\000P\000h\000\342\000n\000\040\000t\000\355\000c\000h\000\040\000q\000u\000a\000n\000\040\001\021\000i\036\303\000m}{chapter.1}% 7
\BOOKMARK [2][-]{subsection.1.1.1}{\376\377\000B\000\340\000i\000\040\000t\000o\000\341\000n\000\040\000p\000h\000\342\000n\000\040\000t\000\355\000c\000h\000\040\000q\000u\000a\000n\000\040\001\021\000i\036\303\000m}{section.1.1}% 8
\BOOKMARK [2][-]{subsection.1.1.2}{\376\377\000C\000\341\000c\000\040\000m\036\351\000c\000\040\001\021\036\331\000\040\000p\000h\000\342\000n\000\040\000t\000\355\000c\000h\000\040\000q\000u\000a\000n\000\040\001\021\000i\036\303\000m}{section.1.1}% 9
\BOOKMARK [1][-]{section.1.2}{\376\377\000P\000h\000\342\000n\000\040\000t\000\355\000c\000h\000\040\000q\000u\000a\000n\000\040\001\021\000i\036\303\000m\000\040\000m\036\351\000c\000\040\000k\000h\000\355\000a\000\040\000c\036\241\000n\000h}{chapter.1}% 10
\BOOKMARK [2][-]{subsection.1.2.1}{\376\377\000B\000\340\000i\000\040\000t\000o\000\341\000n\000\040\000p\000h\000\342\000n\000\040\000t\000\355\000c\000h\000\040\000q\000u\000a\000n\000\040\001\021\000i\036\303\000m\000\040\000m\036\351\000c\000\040\000k\000h\000\355\000a\000\040\000c\036\241\000n\000h}{section.1.2}% 11
\BOOKMARK [2][-]{subsection.1.2.2}{\376\377\000S\036\361\000\040\000c\036\247\000n\000\040\000t\000h\000i\036\277\000t\000\040\000c\036\347\000a\000\040\000b\000\340\000i\000\040\000t\000o\000\341\000n}{section.1.2}% 12
\BOOKMARK [2][-]{subsection.1.2.3}{\376\377\000C\000\364\000n\000g\000\040\000v\000i\036\307\000c\000\040\000c\000h\000\355\000n\000h\000\040\000c\036\347\000a\000\040\000p\000h\000\342\000n\000\040\000t\000\355\000c\000h\000\040\000q\000u\000a\000n\000\040\001\021\000i\036\303\000m\000\040\000m\036\351\000c\000\040\000k\000h\000\355\000a\000\040\000c\036\241\000n\000h}{section.1.2}% 13
\BOOKMARK [1][-]{section.1.3}{\376\377\000B\000\340\000i\000\040\000t\000o\000\341\000n\000\040\000p\000h\000\342\000n\000\040\000t\000\355\000c\000h\000\040\000q\000u\000a\000n\000\040\001\021\000i\036\303\000m\000\040\000m\036\351\000c\000\040\000k\000h\000\355\000a\000\040\000c\036\241\000n\000h\000\040\000v\036\301\000\040\000s\000\341\000c\000h}{chapter.1}% 14
\BOOKMARK [2][-]{subsection.1.3.1}{\376\377\000M\000\364\000\040\000t\036\243\000\040\000b\000\340\000i\000\040\000t\000o\000\341\000n}{section.1.3}% 15
\BOOKMARK [2][-]{subsection.1.3.2}{\376\377\000N\000h\036\357\000n\000g\000\040\000c\000\364\000n\000g\000\040\000t\000r\000\354\000n\000h\000\040\000n\000g\000h\000i\000\352\000n\000\040\000c\036\351\000u\000\040\000t\000r\001\260\036\333\000c\000\040\001\021\000\363}{section.1.3}% 16
\BOOKMARK [2][-]{subsection.1.3.3}{\376\377\001\020\036\331\000n\000g\000\040\000l\036\361\000c\000\040\000n\000g\000h\000i\000\352\000n\000\040\000c\036\351\000u}{section.1.3}% 17
\BOOKMARK [1][-]{section.1.4}{\376\377\000M\036\345\000c\000\040\000t\000i\000\352\000u\000\040\000c\036\347\000a\000\040\000k\000h\000\363\000a\000\040\000l\000u\036\255\000n}{chapter.1}% 18
\BOOKMARK [1][-]{section.1.5}{\376\377\001\020\000\363\000n\000g\000\040\000g\000\363\000p\000\040\000c\036\347\000a\000\040\000k\000h\000\363\000a\000\040\000l\000u\036\255\000n}{chapter.1}% 19
\BOOKMARK [1][-]{section.1.6}{\376\377\000C\036\245\000u\000\040\000t\000r\000\372\000c\000\040\000k\000h\000\363\000a\000\040\000l\000u\036\255\000n}{chapter.1}% 20
\BOOKMARK [0][-]{chapter.2}{\376\377\000N\000h\036\357\000n\000g\000\040\000c\000\364\000n\000g\000\040\000t\000r\000\354\000n\000h\000\040\000l\000i\000\352\000n\000\040\000q\000u\000a\000n}{}% 21
\BOOKMARK [1][-]{section.2.1}{\376\377\000C\000\341\000c\000\040\000p\000h\001\260\001\241\000n\000g\000\040\000p\000h\000\341\000p\000\040\000k\000h\000a\000i\000\040\000t\000h\000\341\000c\000\040\000\375\000\040\000k\000i\036\277\000n\000\040\000n\000g\001\260\036\335\000i\000\040\000d\000\371\000n\000g}{chapter.2}% 22
\BOOKMARK [2][-]{subsection.2.1.1}{\376\377\000P\000h\000\342\000n\000\040\000l\036\333\000p\000\040\000c\000h\036\347\000\040\000q\000u\000a\000n}{section.2.1}% 23
\BOOKMARK [2][-]{subsection.2.1.2}{\376\377\000P\000h\000\342\000n\000\040\000l\036\333\000p\000\040\000q\000u\000a\000n\000\040\001\021\000i\036\303\000m}{section.2.1}% 24
\BOOKMARK [1][-]{section.2.2}{\376\377\000P\000h\000\342\000n\000\040\000t\000\355\000c\000h\000\040\000q\000u\000a\000n\000\040\001\021\000i\036\303\000m\000\040\000m\036\351\000c\000\040\000k\000h\000\355\000a\000\040\000c\036\241\000n\000h}{chapter.2}% 25
\BOOKMARK [2][-]{subsection.2.2.1}{\376\377\000R\000\372\000t\000\040\000t\000r\000\355\000c\000h\000\040\000k\000h\000\355\000a\000\040\000c\036\241\000n\000h\000\040\000-\000\040\000t\000h\036\361\000c\000\040\000t\000h\036\303}{section.2.2}% 26
\BOOKMARK [2][-]{subsection.2.2.2}{\376\377\000P\000h\000\342\000n\000\040\000l\036\333\000p\000\040\000q\000u\000a\000n\000\040\001\021\000i\036\303\000m\000\040\000c\036\347\000a\000\040\000k\000h\000\355\000a\000\040\000c\036\241\000n\000h\000\040\000-\000\040\000t\000h\036\361\000c\000\040\000t\000h\036\303}{section.2.2}% 27
\BOOKMARK [0][-]{chapter.3}{\376\377\000T\036\241\000o\000\040\000n\000g\036\357\000\040\000l\000i\036\307\000u\000\040\000h\000u\036\245\000n\000\040\000l\000u\000y\036\307\000n}{}% 28
\BOOKMARK [1][-]{section.3.1}{\376\377\000T\000h\000u\000\040\000t\000h\036\255\000p\000\040\000b\000\354\000n\000h\000\040\000l\000u\036\255\000n\000\040\000t\036\353\000\040\000T\000i\000k\000i}{chapter.3}% 29
\BOOKMARK [2][-]{subsection.3.1.1}{\376\377\000T\000h\000u\000\040\000t\000h\036\255\000p\000\040\000c\000\341\000c\000\040\001\021\001\260\036\335\000n\000g\000\040\000d\036\253\000n\000\040\000v\036\301\000\040\000s\000\341\000c\000h\000\040\000t\000r\000\352\000n\000\040\000T\000i\000k\000i}{section.3.1}% 30
\BOOKMARK [2][-]{subsection.3.1.2}{\376\377\000R\000\372\000t\000\040\000r\000a\000\040\000c\000\341\000c\000\040\000t\036\255\000p\000\040\000t\000i\000n\000\040\000J\000S\000O\000N}{section.3.1}% 31
\BOOKMARK [2][-]{subsection.3.1.3}{\376\377\000L\001\260\000u\000\040\000t\000h\000\364\000n\000g\000\040\000t\000i\000n\000\040\000x\000u\036\321\000n\000g\000\040\000c\001\241\000\040\000s\036\337\000\040\000d\036\357\000\040\000l\000i\036\307\000u}{section.3.1}% 32
\BOOKMARK [1][-]{section.3.2}{\376\377\000C\000h\036\315\000n\000\040\000d\036\357\000\040\000l\000i\036\307\000u\000\040\000g\000\341\000n\000\040\000n\000h\000\343\000n}{chapter.3}% 33
\BOOKMARK [1][-]{section.3.3}{\376\377\000X\000\341\000c\000\040\001\021\036\313\000n\000h\000\040\000c\000\341\000c\000\040\000k\000h\000\355\000a\000\040\000c\036\241\000n\000h\000\040\000c\036\347\000a\000\040\000t\000h\036\361\000c\000\040\000t\000h\036\303\000\040\000s\000\341\000c\000h}{chapter.3}% 34
\BOOKMARK [1][-]{section.3.4}{\376\377\000C\000\341\000c\000h\000\040\000t\000h\036\351\000c\000\040\000g\000\341\000n\000\040\000n\000h\000\343\000n}{chapter.3}% 35
\BOOKMARK [0][-]{chapter.4}{\376\377\000X\000\342\000y\000\040\000d\036\361\000n\000g\000\040\000c\000h\001\260\001\241\000n\000g\000\040\000t\000r\000\354\000n\000h\000\040\000p\000h\000\342\000n\000\040\000t\000\355\000c\000h\000\040\000q\000u\000a\000n\000\040\001\021\000i\036\303\000m\000\040\000v\036\301\000\040\000s\000\341\000c\000h}{}% 36
\BOOKMARK [1][-]{section.4.1}{\376\377\000T\000h\000i\036\277\000t\000\040\000k\036\277\000\040\000c\001\241\000\040\000s\036\337\000\040\000d\036\357\000\040\000l\000i\036\307\000u}{chapter.4}% 37
\BOOKMARK [1][-]{section.4.2}{\376\377\000H\000u\036\245\000n\000\040\000l\000u\000y\036\307\000n\000\040\000g\000\341\000n\000\040\000n\000h\000\343\000n\000\040\000t\036\361\000\040\001\021\036\331\000n\000g}{chapter.4}% 38
\BOOKMARK [2][-]{subsection.4.2.1}{\376\377\000C\000h\000u\000y\036\303\000n\000\040\000b\000\354\000n\000h\000\040\000l\000u\036\255\000n\000\040\000s\000a\000n\000g\000\040\000v\000e\000c\000t\000o\000r}{section.4.2}% 39
\BOOKMARK [2][-]{subsection.4.2.2}{\376\377\000P\000h\000\342\000n\000\040\000l\036\333\000p\000\040\000b\000\354\000n\000h\000\040\000l\000u\036\255\000n}{section.4.2}% 40
\BOOKMARK [0][-]{chapter.5}{\376\377\000K\036\277\000t\000\040\000l\000u\036\255\000n}{}% 41
\BOOKMARK [1][-]{section.5.1}{\376\377\000C\000\341\000c\000\040\000k\036\277\000t\000\040\000q\000u\036\243\000\040\001\021\036\241\000t\000\040\001\021\001\260\036\343\000c}{chapter.5}% 42
\BOOKMARK [1][-]{section.5.2}{\376\377\000N\000h\036\357\000n\000g\000\040\000h\036\241\000n\000\040\000c\000h\036\277}{chapter.5}% 43
\BOOKMARK [1][-]{section.5.3}{\376\377\000H\001\260\036\333\000n\000g\000\040\000p\000h\000\341\000t\000\040\000t\000r\000i\036\303\000n\000\040\000t\000r\000o\000n\000g\000\040\000t\001\260\001\241\000n\000g\000\040\000l\000a\000i}{chapter.5}% 44
\BOOKMARK [0][-]{chapter*.14}{\376\377\000T\000\340\000i\000\040\000l\000i\036\307\000u\000\040\000t\000h\000a\000m\000\040\000k\000h\036\243\000o}{}% 45
