\relax 
\providecommand\hyper@newdestlabel[2]{}
\bibstyle{biblatex}
\bibdata{main-blx,References/references}
\citation{biblatex-control}
\abx@aux@sortscheme{nty}
\abx@aux@refcontext{nty/global/}
\providecommand\HyperFirstAtBeginDocument{\AtBeginDocument}
\HyperFirstAtBeginDocument{\ifx\hyper@anchor\@undefined
\global\let\oldcontentsline\contentsline
\gdef\contentsline#1#2#3#4{\oldcontentsline{#1}{#2}{#3}}
\global\let\oldnewlabel\newlabel
\gdef\newlabel#1#2{\newlabelxx{#1}#2}
\gdef\newlabelxx#1#2#3#4#5#6{\oldnewlabel{#1}{{#2}{#3}}}
\AtEndDocument{\ifx\hyper@anchor\@undefined
\let\contentsline\oldcontentsline
\let\newlabel\oldnewlabel
\fi}
\fi}
\global\let\hyper@last\relax 
\gdef\HyperFirstAtBeginDocument#1{#1}
\providecommand\HyField@AuxAddToFields[1]{}
\providecommand\HyField@AuxAddToCoFields[2]{}
\@writefile{toc}{\boolfalse {citerequest}\boolfalse {citetracker}\boolfalse {pagetracker}\boolfalse {backtracker}\relax }
\@writefile{lof}{\boolfalse {citerequest}\boolfalse {citetracker}\boolfalse {pagetracker}\boolfalse {backtracker}\relax }
\@writefile{lot}{\boolfalse {citerequest}\boolfalse {citetracker}\boolfalse {pagetracker}\boolfalse {backtracker}\relax }
\pgfsyspdfmark {pgfid1}{20977648}{9981986}
\@input{Appendix/reassurances.aux}
\@input{Appendix/thanks.aux}
\@writefile{toc}{\defcounter {refsection}{0}\relax }\@writefile{toc}{\contentsline {chapter}{L\IeC {\`\ohorn }i cam \IeC {\dj }oan}{ii}{chapter*.1}}
\@input{Appendix/decuong.aux}
\@writefile{toc}{\defcounter {refsection}{0}\relax }\@writefile{toc}{\contentsline {chapter}{L\IeC {\`\ohorn }i c\IeC {\h a}m \IeC {\ohorn }n}{iii}{chapter*.2}}
\@writefile{toc}{\defcounter {refsection}{0}\relax }\@writefile{toc}{\contentsline {chapter}{\IeC {\DJ }\IeC {\`\ecircumflex } c\IeC {\uhorn }\IeC {\ohorn }ng chi ti\IeC {\'\ecircumflex }t}{viii}{chapter*.2}}
\@writefile{toc}{\defcounter {refsection}{0}\relax }\@writefile{toc}{\contentsline {chapter}{M\IeC {\d u}c l\IeC {\d u}c}{ix}{chapter*.3}}
\@input{Appendix/tomtat.aux}
\@input{Chapter1/chapter1.aux}
\@writefile{toc}{\defcounter {refsection}{0}\relax }\@writefile{toc}{\contentsline {chapter}{T\IeC {\'o}m t\IeC {\'\abreve }t}{1}{chapter*.6}}
\citation{2002-Pang}
\abx@aux@cite{2002-Pang}
\abx@aux@segm{0}{0}{2002-Pang}
\citation{2002-Turney}
\abx@aux@cite{2002-Turney}
\abx@aux@segm{0}{0}{2002-Turney}
\citation{1999-Wiebe}
\abx@aux@cite{1999-Wiebe}
\abx@aux@segm{0}{0}{1999-Wiebe}
\citation{2004-Wilson}
\abx@aux@cite{2004-Wilson}
\abx@aux@segm{0}{0}{2004-Wilson}
\citation{2004-Hu}
\abx@aux@cite{2004-Hu}
\abx@aux@segm{0}{0}{2004-Hu}
\citation{2006a-Jindal}
\abx@aux@cite{2006a-Jindal}
\abx@aux@segm{0}{0}{2006a-Jindal}
\citation{2006b-Jindal}
\abx@aux@cite{2006b-Jindal}
\abx@aux@segm{0}{0}{2006b-Jindal}
\citation{al2015human}
\abx@aux@cite{al2015human}
\abx@aux@segm{0}{0}{al2015human}
\@input{Chapter2/chapter2.aux}
\citation{1982-Banfield}
\abx@aux@cite{1982-Banfield}
\abx@aux@segm{0}{0}{1982-Banfield}
\citation{1994-Wiebe}
\abx@aux@cite{1994-Wiebe}
\abx@aux@segm{0}{0}{1994-Wiebe}
\citation{1985-Quirk}
\abx@aux@cite{1985-Quirk}
\abx@aux@segm{0}{0}{1985-Quirk}
\citation{2007-Mihalcea}
\abx@aux@cite{2007-Mihalcea}
\abx@aux@segm{0}{0}{2007-Mihalcea}
\citation{2000-HatziWiebe}
\abx@aux@cite{2000-HatziWiebe}
\abx@aux@segm{0}{0}{2000-HatziWiebe}
\citation{2011-HTuan}
\abx@aux@cite{2011-HTuan}
\abx@aux@segm{0}{0}{2011-HTuan}
\citation{2000-HatziWiebe}
\abx@aux@segm{0}{0}{2000-HatziWiebe}
\citation{2008-PNVPhuong}
\abx@aux@cite{2008-PNVPhuong}
\abx@aux@segm{0}{0}{2008-PNVPhuong}
\citation{2008-DingLiuYu}
\abx@aux@cite{2008-DingLiuYu}
\abx@aux@segm{0}{0}{2008-DingLiuYu}
\citation{2004-HuLiu}
\abx@aux@cite{2004-HuLiu}
\abx@aux@segm{0}{0}{2004-HuLiu}
\citation{2004-Hu}
\abx@aux@segm{0}{0}{2004-Hu}
\citation{2005-Popescu}
\abx@aux@cite{2005-Popescu}
\abx@aux@segm{0}{0}{2005-Popescu}
\citation{2008-Blair}
\abx@aux@cite{2008-Blair}
\abx@aux@segm{0}{0}{2008-Blair}
\citation{2006-KuLiangChen}
\abx@aux@cite{2006-KuLiangChen}
\abx@aux@segm{0}{0}{2006-KuLiangChen}
\citation{2010-MoghaddamEster}
\abx@aux@cite{2010-MoghaddamEster}
\abx@aux@segm{0}{0}{2010-MoghaddamEster}
\citation{2009-Zhu}
\abx@aux@cite{2009-Zhu}
\abx@aux@segm{0}{0}{2009-Zhu}
\citation{2000-FrantziMima}
\abx@aux@cite{2000-FrantziMima}
\abx@aux@segm{0}{0}{2000-FrantziMima}
\citation{2010-LongZhangZhu}
\abx@aux@cite{2010-LongZhangZhu}
\abx@aux@segm{0}{0}{2010-LongZhangZhu}
\citation{2007-CilibrasiVitanyi}
\abx@aux@cite{2007-CilibrasiVitanyi}
\abx@aux@segm{0}{0}{2007-CilibrasiVitanyi}
\citation{2004-HuLiu}
\abx@aux@segm{0}{0}{2004-HuLiu}
\citation{2008-Blair}
\abx@aux@segm{0}{0}{2008-Blair}
\citation{2006-ZhuangJingZhu}
\abx@aux@cite{2006-ZhuangJingZhu}
\abx@aux@segm{0}{0}{2006-ZhuangJingZhu}
\citation{2009-SomasundaranWiebe}
\abx@aux@cite{2009-SomasundaranWiebe}
\abx@aux@segm{0}{0}{2009-SomasundaranWiebe}
\citation{2006-Kobayashi}
\abx@aux@cite{2006-Kobayashi}
\abx@aux@segm{0}{0}{2006-Kobayashi}
\citation{2009-Wu}
\abx@aux@cite{2009-Wu}
\abx@aux@segm{0}{0}{2009-Wu}
\citation{1989-Rabiner}
\abx@aux@cite{1989-Rabiner}
\abx@aux@segm{0}{0}{1989-Rabiner}
\citation{2001-Lafferty}
\abx@aux@cite{2001-Lafferty}
\abx@aux@segm{0}{0}{2001-Lafferty}
\citation{2009-JinHo}
\abx@aux@cite{2009-JinHo}
\abx@aux@segm{0}{0}{2009-JinHo}
\citation{2010-JakobGurevych}
\abx@aux@cite{2010-JakobGurevych}
\abx@aux@segm{0}{0}{2010-JakobGurevych}
\citation{2010-LiHan}
\abx@aux@cite{2010-LiHan}
\abx@aux@segm{0}{0}{2010-LiHan}
\citation{2007-KobayashiInui}
\abx@aux@cite{2007-KobayashiInui}
\abx@aux@segm{0}{0}{2007-KobayashiInui}
\citation{2002-ManevitzYousef}
\abx@aux@cite{2002-ManevitzYousef}
\abx@aux@segm{0}{0}{2002-ManevitzYousef}
\citation{2011-YuZha}
\abx@aux@cite{2011-YuZha}
\abx@aux@segm{0}{0}{2011-YuZha}
\citation{2006-Ghani}
\abx@aux@cite{2006-Ghani}
\abx@aux@segm{0}{0}{2006-Ghani}
\citation{1999-Hofmann}
\abx@aux@cite{1999-Hofmann}
\abx@aux@segm{0}{0}{1999-Hofmann}
\citation{2003-BleiNgJordan}
\abx@aux@cite{2003-BleiNgJordan}
\abx@aux@segm{0}{0}{2003-BleiNgJordan}
\citation{2007-Mei}
\abx@aux@cite{2007-Mei}
\abx@aux@segm{0}{0}{2007-Mei}
\citation{2008-Branavan}
\abx@aux@cite{2008-Branavan}
\abx@aux@segm{0}{0}{2008-Branavan}
\citation{2015-Wang}
\abx@aux@cite{2015-Wang}
\abx@aux@segm{0}{0}{2015-Wang}
\citation{2004-HuLiu}
\abx@aux@segm{0}{0}{2004-HuLiu}
\citation{2008-Su}
\abx@aux@cite{2008-Su}
\abx@aux@segm{0}{0}{2008-Su}
\citation{2011-HaiChangKim}
\abx@aux@cite{2011-HaiChangKim}
\abx@aux@segm{0}{0}{2011-HaiChangKim}
\citation{1989-Rabiner}
\abx@aux@segm{0}{0}{1989-Rabiner}
\citation{2002-ManevitzYousef}
\abx@aux@segm{0}{0}{2002-ManevitzYousef}
\citation{2010-WeiGulla}
\abx@aux@cite{2010-WeiGulla}
\abx@aux@segm{0}{0}{2010-WeiGulla}
\citation{2011-Jiang}
\abx@aux@cite{2011-Jiang}
\abx@aux@segm{0}{0}{2011-Jiang}
\citation{2009-BoiyMoens}
\abx@aux@cite{2009-BoiyMoens}
\abx@aux@segm{0}{0}{2009-BoiyMoens}
\citation{2016-NHBDai}
\abx@aux@cite{2016-NHBDai}
\abx@aux@segm{0}{0}{2016-NHBDai}
\citation{2012-Geoffrey}
\abx@aux@cite{2012-Geoffrey}
\abx@aux@segm{0}{0}{2012-Geoffrey}
\citation{2008-DingLiuYu}
\abx@aux@segm{0}{0}{2008-DingLiuYu}
\citation{2004-PolanyiZaenen}
\abx@aux@cite{2004-PolanyiZaenen}
\abx@aux@segm{0}{0}{2004-PolanyiZaenen}
\@input{Chapter3/chapter3.aux}
\citation{al2015human}
\abx@aux@segm{0}{0}{al2015human}
\@input{Chapter4/chapter4.aux}
\citation{le2014distributed}
\abx@aux@cite{le2014distributed}
\abx@aux@segm{0}{0}{le2014distributed}
\citation{han2011data}
\abx@aux@cite{han2011data}
\abx@aux@segm{0}{0}{han2011data}
\citation{han2011data}
\abx@aux@segm{0}{0}{han2011data}
\@input{Chapter5/chapter5.aux}
\@writefile{toc}{\defcounter {refsection}{0}\relax }\@writefile{toc}{\contentsline {chapter}{T\IeC {\`a}i li\IeC {\d \ecircumflex }u tham kh\IeC {\h a}o}{43}{chapter*.14}}
