\relax 
\providecommand\hyper@newdestlabel[2]{}
\@writefile{toc}{\defcounter {refsection}{0}\relax }\@writefile{toc}{\contentsline {chapter}{\numberline {3}T\IeC {\d a}o ng\IeC {\~\uhorn } li\IeC {\d \ecircumflex }u hu\IeC {\'\acircumflex }n luy\IeC {\d \ecircumflex }n}{22}{chapter.3}}
\@writefile{lof}{\defcounter {refsection}{0}\relax }\@writefile{lof}{\addvspace {10\p@ }}
\@writefile{lot}{\defcounter {refsection}{0}\relax }\@writefile{lot}{\addvspace {10\p@ }}
\newlabel{Chapter3}{{3}{22}{Tạo ngữ liệu huấn luyện}{chapter.3}{}}
\@writefile{lof}{\defcounter {refsection}{0}\relax }\@writefile{lof}{\contentsline {figure}{\numberline {3.1}{\ignorespaces Qu\IeC {\'a} tr\IeC {\`\i }nh t\IeC {\d a}o ng\IeC {\~\uhorn } li\IeC {\d \ecircumflex }u}}{22}{figure.3.1}}
\newlabel{fig:3-1}{{3.1}{22}{Quá trình tạo ngữ liệu}{figure.3.1}{}}
\@writefile{toc}{\defcounter {refsection}{0}\relax }\@writefile{toc}{\contentsline {section}{\numberline {3.1}Thu th\IeC {\d \acircumflex }p b\IeC {\`\i }nh lu\IeC {\d \acircumflex }n t\IeC {\`\uhorn } Tiki}{22}{section.3.1}}
\@writefile{lof}{\defcounter {refsection}{0}\relax }\@writefile{lof}{\contentsline {figure}{\numberline {3.2}{\ignorespaces Qu\IeC {\'a} tr\IeC {\`\i }nh thu th\IeC {\d \acircumflex }p b\IeC {\`\i }nh lu\IeC {\d \acircumflex }n}}{23}{figure.3.2}}
\newlabel{fig:3-2}{{3.2}{23}{Quá trình thu thập bình luận}{figure.3.2}{}}
\@writefile{toc}{\defcounter {refsection}{0}\relax }\@writefile{toc}{\contentsline {subsection}{\numberline {3.1.1}Thu th\IeC {\d \acircumflex }p c\IeC {\'a}c \IeC {\dj }\IeC {\uhorn }\IeC {\`\ohorn }ng d\IeC {\~\acircumflex }n v\IeC {\`\ecircumflex } s\IeC {\'a}ch tr\IeC {\^e}n Tiki}{23}{subsection.3.1.1}}
\@writefile{lof}{\defcounter {refsection}{0}\relax }\@writefile{lof}{\contentsline {figure}{\numberline {3.3}{\ignorespaces S\IeC {\ohorn } \IeC {\dj }\IeC {\`\ocircumflex } thu th\IeC {\d \acircumflex }p b\IeC {\`\i }nh lu\IeC {\d \acircumflex }n t\IeC {\`\uhorn } Tiki}}{24}{figure.3.3}}
\newlabel{fig:3-3}{{3.3}{24}{Sơ đồ thu thập bình luận từ Tiki}{figure.3.3}{}}
\@writefile{toc}{\defcounter {refsection}{0}\relax }\@writefile{toc}{\contentsline {subsection}{\numberline {3.1.2}R\IeC {\'u}t ra c\IeC {\'a}c t\IeC {\d \acircumflex }p tin JSON}{24}{subsection.3.1.2}}
\@writefile{lof}{\defcounter {refsection}{0}\relax }\@writefile{lof}{\contentsline {figure}{\numberline {3.4}{\ignorespaces M\IeC {\~\acircumflex }u t\IeC {\d \acircumflex }p tin v\IeC {\u a}n b\IeC {\h a}n l\IeC {\uhorn }u tr\IeC {\~\uhorn } b\IeC {\`\i }nh lu\IeC {\d \acircumflex }n}}{25}{figure.3.4}}
\newlabel{fig:3-4}{{3.4}{25}{Mẫu tập tin văn bản lưu trữ bình luận}{figure.3.4}{}}
\@writefile{toc}{\defcounter {refsection}{0}\relax }\@writefile{toc}{\contentsline {subsection}{\numberline {3.1.3}L\IeC {\uhorn }u th\IeC {\^o}ng tin xu\IeC {\'\ocircumflex }ng c\IeC {\ohorn } s\IeC {\h \ohorn } d\IeC {\~\uhorn } li\IeC {\d \ecircumflex }u}{26}{subsection.3.1.3}}
\@writefile{toc}{\defcounter {refsection}{0}\relax }\@writefile{toc}{\contentsline {section}{\numberline {3.2}Ch\IeC {\d o}n d\IeC {\~\uhorn } li\IeC {\d \ecircumflex }u g\IeC {\'a}n nh\IeC {\~a}n}{27}{section.3.2}}
\@writefile{toc}{\defcounter {refsection}{0}\relax }\@writefile{toc}{\contentsline {section}{\numberline {3.3}X\IeC {\'a}c \IeC {\dj }\IeC {\d i}nh c\IeC {\'a}c kh\IeC {\'\i }a c\IeC {\d a}nh c\IeC {\h u}a th\IeC {\d \uhorn }c th\IeC {\h \ecircumflex } s\IeC {\'a}ch}{28}{section.3.3}}
\@writefile{lot}{\defcounter {refsection}{0}\relax }\@writefile{lot}{\contentsline {table}{\numberline {3.1}{\ignorespaces Danh s\IeC {\'a}ch c\IeC {\'a}c kh\IeC {\'\i }a c\IeC {\d a}nh c\IeC {\h u}a s\IeC {\'a}ch}}{29}{table.3.1}}
\newlabel{3-1}{{3.1}{29}{Danh sách các khía cạnh của sách}{table.3.1}{}}
\@writefile{toc}{\defcounter {refsection}{0}\relax }\@writefile{toc}{\contentsline {section}{\numberline {3.4}G\IeC {\'a}n nh\IeC {\~a}n}{30}{section.3.4}}
\@writefile{lof}{\defcounter {refsection}{0}\relax }\@writefile{lof}{\contentsline {figure}{\numberline {3.5}{\ignorespaces M\IeC {\`a}n h\IeC {\`\i }nh g\IeC {\'a}n nh\IeC {\~a}n d\IeC {\~\uhorn } li\IeC {\d \ecircumflex }u}}{31}{figure.3.5}}
\newlabel{fig:3-5}{{3.5}{31}{Màn hình gán nhãn dữ liệu}{figure.3.5}{}}
\@writefile{lot}{\defcounter {refsection}{0}\relax }\@writefile{lot}{\contentsline {table}{\numberline {3.2}{\ignorespaces Th\IeC {\'\ocircumflex }ng k\IeC {\^e} ph\IeC {\^a}n b\IeC {\'\ocircumflex } d\IeC {\~\uhorn } li\IeC {\d \ecircumflex }u c\IeC {\h u}a t\IeC {\d \acircumflex }p ng\IeC {\~\uhorn } li\IeC {\d \ecircumflex }u ban \IeC {\dj }\IeC {\`\acircumflex }u}}{32}{table.3.2}}
\newlabel{3-2}{{3.2}{32}{Thống kê phân bố dữ liệu của tập ngữ liệu ban đầu}{table.3.2}{}}
\@writefile{lot}{\defcounter {refsection}{0}\relax }\@writefile{lot}{\contentsline {table}{\numberline {3.3}{\ignorespaces Th\IeC {\'\ocircumflex }ng k\IeC {\^e} ph\IeC {\^a}n b\IeC {\'\ocircumflex } d\IeC {\~\uhorn } li\IeC {\d \ecircumflex }u c\IeC {\h u}a t\IeC {\d \acircumflex }p ng\IeC {\~\uhorn } li\IeC {\d \ecircumflex }u sau khi tinh ch\IeC {\h i}nh}}{33}{table.3.3}}
\newlabel{3-3}{{3.3}{33}{Thống kê phân bố dữ liệu của tập ngữ liệu sau khi tinh chỉnh}{table.3.3}{}}
\@setckpt{Chapter3/chapter3}{
\setcounter{page}{34}
\setcounter{equation}{0}
\setcounter{enumi}{0}
\setcounter{enumii}{0}
\setcounter{enumiii}{0}
\setcounter{enumiv}{0}
\setcounter{footnote}{1}
\setcounter{mpfootnote}{0}
\setcounter{part}{0}
\setcounter{chapter}{3}
\setcounter{section}{4}
\setcounter{subsection}{0}
\setcounter{subsubsection}{0}
\setcounter{paragraph}{0}
\setcounter{subparagraph}{0}
\setcounter{figure}{5}
\setcounter{table}{3}
\setcounter{tabx@nest}{0}
\setcounter{listtotal}{0}
\setcounter{listcount}{0}
\setcounter{liststart}{0}
\setcounter{liststop}{0}
\setcounter{citecount}{0}
\setcounter{citetotal}{0}
\setcounter{multicitecount}{0}
\setcounter{multicitetotal}{0}
\setcounter{instcount}{61}
\setcounter{maxnames}{3}
\setcounter{minnames}{1}
\setcounter{maxitems}{3}
\setcounter{minitems}{1}
\setcounter{citecounter}{0}
\setcounter{savedcitecounter}{0}
\setcounter{uniquelist}{0}
\setcounter{uniquename}{0}
\setcounter{refsection}{0}
\setcounter{refsegment}{0}
\setcounter{maxextratitle}{0}
\setcounter{maxextratitleyear}{0}
\setcounter{maxextrayear}{0}
\setcounter{maxextraalpha}{0}
\setcounter{abbrvpenalty}{50}
\setcounter{highnamepenalty}{50}
\setcounter{lownamepenalty}{25}
\setcounter{maxparens}{3}
\setcounter{parenlevel}{0}
\setcounter{mincomprange}{10}
\setcounter{maxcomprange}{100000}
\setcounter{mincompwidth}{1}
\setcounter{afterword}{0}
\setcounter{savedafterword}{0}
\setcounter{annotator}{0}
\setcounter{savedannotator}{0}
\setcounter{author}{0}
\setcounter{savedauthor}{0}
\setcounter{bookauthor}{0}
\setcounter{savedbookauthor}{0}
\setcounter{commentator}{0}
\setcounter{savedcommentator}{0}
\setcounter{editor}{0}
\setcounter{savededitor}{0}
\setcounter{editora}{0}
\setcounter{savededitora}{0}
\setcounter{editorb}{0}
\setcounter{savededitorb}{0}
\setcounter{editorc}{0}
\setcounter{savededitorc}{0}
\setcounter{foreword}{0}
\setcounter{savedforeword}{0}
\setcounter{holder}{0}
\setcounter{savedholder}{0}
\setcounter{introduction}{0}
\setcounter{savedintroduction}{0}
\setcounter{namea}{0}
\setcounter{savednamea}{0}
\setcounter{nameb}{0}
\setcounter{savednameb}{0}
\setcounter{namec}{0}
\setcounter{savednamec}{0}
\setcounter{translator}{0}
\setcounter{savedtranslator}{0}
\setcounter{shortauthor}{0}
\setcounter{savedshortauthor}{0}
\setcounter{shorteditor}{0}
\setcounter{savedshorteditor}{0}
\setcounter{labelname}{0}
\setcounter{savedlabelname}{0}
\setcounter{institution}{0}
\setcounter{savedinstitution}{0}
\setcounter{lista}{0}
\setcounter{savedlista}{0}
\setcounter{listb}{0}
\setcounter{savedlistb}{0}
\setcounter{listc}{0}
\setcounter{savedlistc}{0}
\setcounter{listd}{0}
\setcounter{savedlistd}{0}
\setcounter{liste}{0}
\setcounter{savedliste}{0}
\setcounter{listf}{0}
\setcounter{savedlistf}{0}
\setcounter{location}{0}
\setcounter{savedlocation}{0}
\setcounter{organization}{0}
\setcounter{savedorganization}{0}
\setcounter{origlocation}{0}
\setcounter{savedoriglocation}{0}
\setcounter{origpublisher}{0}
\setcounter{savedorigpublisher}{0}
\setcounter{publisher}{0}
\setcounter{savedpublisher}{0}
\setcounter{language}{0}
\setcounter{savedlanguage}{0}
\setcounter{pageref}{0}
\setcounter{savedpageref}{0}
\setcounter{textcitecount}{0}
\setcounter{textcitetotal}{0}
\setcounter{textcitemaxnames}{0}
\setcounter{biburlnumpenalty}{0}
\setcounter{biburlucpenalty}{0}
\setcounter{biburllcpenalty}{0}
\setcounter{smartand}{1}
\setcounter{bbx:relatedcount}{0}
\setcounter{bbx:relatedtotal}{0}
\setcounter{Item}{0}
\setcounter{Hfootnote}{1}
\setcounter{bookmark@seq@number}{39}
\setcounter{lstnumber}{1}
\setcounter{parentequation}{0}
\setcounter{float@type}{16}
\setcounter{algorithm}{0}
\setcounter{ALG@line}{0}
\setcounter{ALG@rem}{0}
\setcounter{ALG@nested}{0}
\setcounter{ALG@Lnr}{2}
\setcounter{ALG@blocknr}{10}
\setcounter{ALG@storecount}{0}
\setcounter{ALG@tmpcounter}{0}
\setcounter{section@level}{1}
\setcounter{lstlisting}{0}
}
