\relax 
\providecommand\hyper@newdestlabel[2]{}
\@writefile{toc}{\defcounter {refsection}{0}\relax }\@writefile{toc}{\contentsline {chapter}{\numberline {4}X\IeC {\^a}y d\IeC {\d \uhorn }ng \IeC {\'\uhorn }ng d\IeC {\d u}ng ph\IeC {\^a}n t\IeC {\'\i }ch quan \IeC {\dj }i\IeC {\h \ecircumflex }m v\IeC {\`\ecircumflex } s\IeC {\'a}ch}{34}{chapter.4}}
\@writefile{lof}{\defcounter {refsection}{0}\relax }\@writefile{lof}{\addvspace {10\p@ }}
\@writefile{lot}{\defcounter {refsection}{0}\relax }\@writefile{lot}{\addvspace {10\p@ }}
\newlabel{Chapter4}{{4}{34}{Xây dựng ứng dụng phân tích quan điểm về sách}{chapter.4}{}}
\@writefile{toc}{\defcounter {refsection}{0}\relax }\@writefile{toc}{\contentsline {section}{\numberline {4.1}Ho\IeC {\`a}n ch\IeC {\h i}nh c\IeC {\ohorn } s\IeC {\h \ohorn } d\IeC {\~\uhorn } li\IeC {\d \ecircumflex }u}{34}{section.4.1}}
\@writefile{lof}{\defcounter {refsection}{0}\relax }\@writefile{lof}{\contentsline {figure}{\numberline {4.1}{\ignorespaces S\IeC {\ohorn } \IeC {\dj }\IeC {\`\ocircumflex } c\IeC {\'a}ch t\IeC {\h \ocircumflex } ch\IeC {\'\uhorn }c d\IeC {\~\uhorn } li\IeC {\d \ecircumflex }u}}{35}{figure.4.1}}
\newlabel{fig:4-1}{{4.1}{35}{Sơ đồ cách tổ chức dữ liệu}{figure.4.1}{}}
\@writefile{toc}{\defcounter {refsection}{0}\relax }\@writefile{toc}{\contentsline {section}{\numberline {4.2}X\IeC {\^a}y d\IeC {\d \uhorn }ng m\IeC {\^o} h\IeC {\`\i }nh ph\IeC {\^a}n t\IeC {\'\i }ch b\IeC {\`\i }nh lu\IeC {\d \acircumflex }n}{35}{section.4.2}}
\@writefile{toc}{\defcounter {refsection}{0}\relax }\@writefile{toc}{\contentsline {subsection}{\numberline {4.2.1}Chuy\IeC {\h \ecircumflex }n b\IeC {\`\i }nh lu\IeC {\d \acircumflex }n sang vector}{35}{subsection.4.2.1}}
\@writefile{lot}{\defcounter {refsection}{0}\relax }\@writefile{lot}{\contentsline {table}{\numberline {4.1}{\ignorespaces K\IeC {\'\ecircumflex }t qu\IeC {\h a} chuy\IeC {\h \ecircumflex }n b\IeC {\`\i }nh lu\IeC {\d \acircumflex }n sang vector}}{36}{table.4.1}}
\newlabel{4-1}{{4.1}{36}{Kết quả chuyển bình luận sang vector}{table.4.1}{}}
\@writefile{toc}{\defcounter {refsection}{0}\relax }\@writefile{toc}{\contentsline {subsection}{\numberline {4.2.2}Ph\IeC {\^a}n l\IeC {\'\ohorn }p b\IeC {\`\i }nh lu\IeC {\d \acircumflex }n}{36}{subsection.4.2.2}}
\@writefile{lof}{\defcounter {refsection}{0}\relax }\@writefile{lof}{\contentsline {figure}{\numberline {4.2}{\ignorespaces Qu\IeC {\'a} tr\IeC {\`\i }nh x\IeC {\^a}y d\IeC {\d \uhorn }ng m\IeC {\^o} h\IeC {\`\i }nh ph\IeC {\^a}n l\IeC {\'\ohorn }p}}{37}{figure.4.2}}
\newlabel{fig:4-2}{{4.2}{37}{Quá trình xây dựng mô hình phân lớp}{figure.4.2}{}}
\@writefile{lof}{\defcounter {refsection}{0}\relax }\@writefile{lof}{\contentsline {figure}{\numberline {4.3}{\ignorespaces C\IeC {\'\acircumflex }u t\IeC {\d a}o c\IeC {\h u}a m\IeC {\d a}ng th\IeC {\`\acircumflex }n kinh.}}{38}{figure.4.3}}
\newlabel{fig:4-3}{{4.3}{38}{Cấu tạo của mạng thần kinh}{figure.4.3}{}}
\@writefile{toc}{\defcounter {refsection}{0}\relax }\@writefile{toc}{\contentsline {section}{\numberline {4.3}Hi\IeC {\h \ecircumflex }n th\IeC {\d i} k\IeC {\'\ecircumflex }t qu\IeC {\h a} l\IeC {\^e}n \IeC {\'\uhorn }ng d\IeC {\d u}ng web}{40}{section.4.3}}
\@writefile{lot}{\defcounter {refsection}{0}\relax }\@writefile{lot}{\contentsline {table}{\numberline {4.2}{\ignorespaces Ph\IeC {\^a}n b\IeC {\'\ocircumflex } d\IeC {\~\uhorn } li\IeC {\d \ecircumflex }u cho t\IeC {\d \acircumflex }p hu\IeC {\'\acircumflex }n luy\IeC {\d \ecircumflex }n}}{41}{table.4.2}}
\newlabel{4-4}{{4.2}{41}{Phân bố dữ liệu cho tập huấn luyện}{table.4.2}{}}
\@writefile{lot}{\defcounter {refsection}{0}\relax }\@writefile{lot}{\contentsline {table}{\numberline {4.3}{\ignorespaces Ph\IeC {\^a}n b\IeC {\'\ocircumflex } d\IeC {\~\uhorn } li\IeC {\d \ecircumflex }u cho t\IeC {\d \acircumflex }p ki\IeC {\h \ecircumflex }m \IeC {\dj }\IeC {\d i}nh}}{42}{table.4.3}}
\newlabel{test-data}{{4.3}{42}{Phân bố dữ liệu cho tập kiểm định}{table.4.3}{}}
\@writefile{lot}{\defcounter {refsection}{0}\relax }\@writefile{lot}{\contentsline {table}{\numberline {4.4}{\ignorespaces K\IeC {\'\ecircumflex }t qu\IeC {\h a} c\IeC {\h u}a qu\IeC {\'a} tr\IeC {\`\i }nh ph\IeC {\^a}n l\IeC {\'\ohorn }p}}{43}{table.4.4}}
\newlabel{my-label}{{4.4}{43}{Kết quả của quá trình phân lớp}{table.4.4}{}}
\@writefile{lof}{\defcounter {refsection}{0}\relax }\@writefile{lof}{\contentsline {figure}{\numberline {4.4}{\ignorespaces Giao di\IeC {\d \ecircumflex }n m\IeC {\`a}n h\IeC {\`\i }nh t\IeC {\`\i }m ki\IeC {\'\ecircumflex }m}}{44}{figure.4.4}}
\newlabel{fig:4-4}{{4.4}{44}{Giao diện màn hình tìm kiếm}{figure.4.4}{}}
\@writefile{lof}{\defcounter {refsection}{0}\relax }\@writefile{lof}{\contentsline {figure}{\numberline {4.5}{\ignorespaces Giao di\IeC {\d \ecircumflex }n m\IeC {\`a}n h\IeC {\`\i }nh hi\IeC {\h \ecircumflex }n th\IeC {\d i} k\IeC {\'\ecircumflex }t qu\IeC {\h a}}}{45}{figure.4.5}}
\newlabel{fig:4-5}{{4.5}{45}{Giao diện màn hình hiển thị kết quả}{figure.4.5}{}}
\@setckpt{Chapter4/chapter4}{
\setcounter{page}{46}
\setcounter{equation}{0}
\setcounter{enumi}{0}
\setcounter{enumii}{0}
\setcounter{enumiii}{0}
\setcounter{enumiv}{0}
\setcounter{footnote}{1}
\setcounter{mpfootnote}{0}
\setcounter{part}{0}
\setcounter{chapter}{4}
\setcounter{section}{3}
\setcounter{subsection}{0}
\setcounter{subsubsection}{0}
\setcounter{paragraph}{0}
\setcounter{subparagraph}{0}
\setcounter{figure}{5}
\setcounter{table}{4}
\setcounter{tabx@nest}{0}
\setcounter{listtotal}{0}
\setcounter{listcount}{0}
\setcounter{liststart}{0}
\setcounter{liststop}{0}
\setcounter{citecount}{0}
\setcounter{citetotal}{0}
\setcounter{multicitecount}{0}
\setcounter{multicitetotal}{0}
\setcounter{instcount}{63}
\setcounter{maxnames}{3}
\setcounter{minnames}{1}
\setcounter{maxitems}{3}
\setcounter{minitems}{1}
\setcounter{citecounter}{0}
\setcounter{savedcitecounter}{0}
\setcounter{uniquelist}{0}
\setcounter{uniquename}{0}
\setcounter{refsection}{0}
\setcounter{refsegment}{0}
\setcounter{maxextratitle}{0}
\setcounter{maxextratitleyear}{0}
\setcounter{maxextrayear}{0}
\setcounter{maxextraalpha}{0}
\setcounter{abbrvpenalty}{50}
\setcounter{highnamepenalty}{50}
\setcounter{lownamepenalty}{25}
\setcounter{maxparens}{3}
\setcounter{parenlevel}{0}
\setcounter{mincomprange}{10}
\setcounter{maxcomprange}{100000}
\setcounter{mincompwidth}{1}
\setcounter{afterword}{0}
\setcounter{savedafterword}{0}
\setcounter{annotator}{0}
\setcounter{savedannotator}{0}
\setcounter{author}{0}
\setcounter{savedauthor}{0}
\setcounter{bookauthor}{0}
\setcounter{savedbookauthor}{0}
\setcounter{commentator}{0}
\setcounter{savedcommentator}{0}
\setcounter{editor}{0}
\setcounter{savededitor}{0}
\setcounter{editora}{0}
\setcounter{savededitora}{0}
\setcounter{editorb}{0}
\setcounter{savededitorb}{0}
\setcounter{editorc}{0}
\setcounter{savededitorc}{0}
\setcounter{foreword}{0}
\setcounter{savedforeword}{0}
\setcounter{holder}{0}
\setcounter{savedholder}{0}
\setcounter{introduction}{0}
\setcounter{savedintroduction}{0}
\setcounter{namea}{0}
\setcounter{savednamea}{0}
\setcounter{nameb}{0}
\setcounter{savednameb}{0}
\setcounter{namec}{0}
\setcounter{savednamec}{0}
\setcounter{translator}{0}
\setcounter{savedtranslator}{0}
\setcounter{shortauthor}{0}
\setcounter{savedshortauthor}{0}
\setcounter{shorteditor}{0}
\setcounter{savedshorteditor}{0}
\setcounter{labelname}{0}
\setcounter{savedlabelname}{0}
\setcounter{institution}{0}
\setcounter{savedinstitution}{0}
\setcounter{lista}{0}
\setcounter{savedlista}{0}
\setcounter{listb}{0}
\setcounter{savedlistb}{0}
\setcounter{listc}{0}
\setcounter{savedlistc}{0}
\setcounter{listd}{0}
\setcounter{savedlistd}{0}
\setcounter{liste}{0}
\setcounter{savedliste}{0}
\setcounter{listf}{0}
\setcounter{savedlistf}{0}
\setcounter{location}{0}
\setcounter{savedlocation}{0}
\setcounter{organization}{0}
\setcounter{savedorganization}{0}
\setcounter{origlocation}{0}
\setcounter{savedoriglocation}{0}
\setcounter{origpublisher}{0}
\setcounter{savedorigpublisher}{0}
\setcounter{publisher}{0}
\setcounter{savedpublisher}{0}
\setcounter{language}{0}
\setcounter{savedlanguage}{0}
\setcounter{pageref}{0}
\setcounter{savedpageref}{0}
\setcounter{textcitecount}{0}
\setcounter{textcitetotal}{0}
\setcounter{textcitemaxnames}{0}
\setcounter{biburlnumpenalty}{0}
\setcounter{biburlucpenalty}{0}
\setcounter{biburllcpenalty}{0}
\setcounter{smartand}{1}
\setcounter{bbx:relatedcount}{0}
\setcounter{bbx:relatedtotal}{0}
\setcounter{Item}{0}
\setcounter{Hfootnote}{2}
\setcounter{bookmark@seq@number}{45}
\setcounter{lstnumber}{1}
\setcounter{parentequation}{0}
\setcounter{float@type}{16}
\setcounter{algorithm}{0}
\setcounter{ALG@line}{0}
\setcounter{ALG@rem}{0}
\setcounter{ALG@nested}{0}
\setcounter{ALG@Lnr}{2}
\setcounter{ALG@blocknr}{10}
\setcounter{ALG@storecount}{0}
\setcounter{ALG@tmpcounter}{0}
\setcounter{section@level}{1}
\setcounter{lstlisting}{0}
}
