\relax 
\providecommand\hyper@newdestlabel[2]{}
\@writefile{toc}{\defcounter {refsection}{0}\relax }\@writefile{toc}{\contentsline {chapter}{\numberline {1}Gi\IeC {\'\ohorn }i thi\IeC {\d \ecircumflex }u}{1}{chapter.1}}
\@writefile{lof}{\defcounter {refsection}{0}\relax }\@writefile{lof}{\addvspace {10\p@ }}
\@writefile{lot}{\defcounter {refsection}{0}\relax }\@writefile{lot}{\addvspace {10\p@ }}
\newlabel{Chapter1}{{1}{1}{Giới thiệu}{chapter.1}{}}
\@writefile{toc}{\defcounter {refsection}{0}\relax }\@writefile{toc}{\contentsline {section}{\numberline {1.1}Ph\IeC {\^a}n t\IeC {\'\i }ch quan \IeC {\dj }i\IeC {\h \ecircumflex }m}{1}{section.1.1}}
\@writefile{toc}{\defcounter {refsection}{0}\relax }\@writefile{toc}{\contentsline {subsection}{\numberline {1.1.1}B\IeC {\`a}i to\IeC {\'a}n ph\IeC {\^a}n t\IeC {\'\i }ch quan \IeC {\dj }i\IeC {\h \ecircumflex }m}{1}{subsection.1.1.1}}
\@writefile{toc}{\defcounter {refsection}{0}\relax }\@writefile{toc}{\contentsline {subsection}{\numberline {1.1.2}C\IeC {\'a}c m\IeC {\'\uhorn }c \IeC {\dj }\IeC {\d \ocircumflex } ph\IeC {\^a}n t\IeC {\'\i }ch quan \IeC {\dj }i\IeC {\h \ecircumflex }m}{2}{subsection.1.1.2}}
\@writefile{toc}{\defcounter {refsection}{0}\relax }\@writefile{toc}{\contentsline {section}{\numberline {1.2}Ph\IeC {\^a}n t\IeC {\'\i }ch quan \IeC {\dj }i\IeC {\h \ecircumflex }m m\IeC {\'\uhorn }c kh\IeC {\'\i }a c\IeC {\d a}nh}{3}{section.1.2}}
\@writefile{toc}{\defcounter {refsection}{0}\relax }\@writefile{toc}{\contentsline {subsection}{\numberline {1.2.1}B\IeC {\`a}i to\IeC {\'a}n ph\IeC {\^a}n t\IeC {\'\i }ch quan \IeC {\dj }i\IeC {\h \ecircumflex }m m\IeC {\'\uhorn }c kh\IeC {\'\i }a c\IeC {\d a}nh}{3}{subsection.1.2.1}}
\@writefile{toc}{\defcounter {refsection}{0}\relax }\@writefile{toc}{\contentsline {subsection}{\numberline {1.2.2}S\IeC {\d \uhorn } c\IeC {\`\acircumflex }n thi\IeC {\'\ecircumflex }t c\IeC {\h u}a b\IeC {\`a}i to\IeC {\'a}n}{4}{subsection.1.2.2}}
\@writefile{toc}{\defcounter {refsection}{0}\relax }\@writefile{toc}{\contentsline {subsection}{\numberline {1.2.3}C\IeC {\^o}ng vi\IeC {\d \ecircumflex }c ch\IeC {\'\i }nh c\IeC {\h u}a ph\IeC {\^a}n t\IeC {\'\i }ch quan \IeC {\dj }i\IeC {\h \ecircumflex }m m\IeC {\'\uhorn }c kh\IeC {\'\i }a c\IeC {\d a}nh}{4}{subsection.1.2.3}}
\@writefile{toc}{\defcounter {refsection}{0}\relax }\@writefile{toc}{\contentsline {section}{\numberline {1.3}B\IeC {\`a}i to\IeC {\'a}n ph\IeC {\^a}n t\IeC {\'\i }ch quan \IeC {\dj }i\IeC {\h \ecircumflex }m m\IeC {\'\uhorn }c kh\IeC {\'\i }a c\IeC {\d a}nh v\IeC {\`\ecircumflex } s\IeC {\'a}ch}{5}{section.1.3}}
\@writefile{toc}{\defcounter {refsection}{0}\relax }\@writefile{toc}{\contentsline {subsection}{\numberline {1.3.1}M\IeC {\^o} t\IeC {\h a} b\IeC {\`a}i to\IeC {\'a}n}{5}{subsection.1.3.1}}
\@writefile{toc}{\defcounter {refsection}{0}\relax }\@writefile{toc}{\contentsline {subsection}{\numberline {1.3.2}Nh\IeC {\~\uhorn }ng c\IeC {\^o}ng tr\IeC {\`\i }nh nghi\IeC {\^e}n c\IeC {\'\uhorn }u tr\IeC {\uhorn }\IeC {\'\ohorn }c \IeC {\dj }\IeC {\'o}}{5}{subsection.1.3.2}}
\@writefile{toc}{\defcounter {refsection}{0}\relax }\@writefile{toc}{\contentsline {subsection}{\numberline {1.3.3}\IeC {\DJ }\IeC {\d \ocircumflex }ng l\IeC {\d \uhorn }c nghi\IeC {\^e}n c\IeC {\'\uhorn }u}{6}{subsection.1.3.3}}
\@writefile{toc}{\defcounter {refsection}{0}\relax }\@writefile{toc}{\contentsline {section}{\numberline {1.4}M\IeC {\d u}c ti\IeC {\^e}u c\IeC {\h u}a kh\IeC {\'o}a lu\IeC {\d \acircumflex }n}{7}{section.1.4}}
\@writefile{toc}{\defcounter {refsection}{0}\relax }\@writefile{toc}{\contentsline {section}{\numberline {1.5}Ph\IeC {\uhorn }\IeC {\ohorn }ng ph\IeC {\'a}p th\IeC {\d \uhorn }c hi\IeC {\d \ecircumflex }n}{7}{section.1.5}}
\@writefile{toc}{\defcounter {refsection}{0}\relax }\@writefile{toc}{\contentsline {subsection}{\numberline {1.5.1}M\IeC {\'a}y h\IeC {\d o}c}{8}{subsection.1.5.1}}
\@writefile{toc}{\defcounter {refsection}{0}\relax }\@writefile{toc}{\contentsline {subsection}{\numberline {1.5.2}X\IeC {\^a}y d\IeC {\d \uhorn }ng \IeC {\'\uhorn }ng d\IeC {\d u}ng web}{8}{subsection.1.5.2}}
\@writefile{toc}{\defcounter {refsection}{0}\relax }\@writefile{toc}{\contentsline {section}{\numberline {1.6}\IeC {\DJ }\IeC {\'o}ng g\IeC {\'o}p c\IeC {\h u}a kh\IeC {\'o}a lu\IeC {\d \acircumflex }n}{9}{section.1.6}}
\@writefile{toc}{\defcounter {refsection}{0}\relax }\@writefile{toc}{\contentsline {section}{\numberline {1.7}C\IeC {\'\acircumflex }u tr\IeC {\'u}c kh\IeC {\'o}a lu\IeC {\d \acircumflex }n}{10}{section.1.7}}
\@setckpt{Chapter1/chapter1}{
\setcounter{page}{11}
\setcounter{equation}{0}
\setcounter{enumi}{0}
\setcounter{enumii}{0}
\setcounter{enumiii}{0}
\setcounter{enumiv}{0}
\setcounter{footnote}{0}
\setcounter{mpfootnote}{0}
\setcounter{part}{0}
\setcounter{chapter}{1}
\setcounter{section}{7}
\setcounter{subsection}{0}
\setcounter{subsubsection}{0}
\setcounter{paragraph}{0}
\setcounter{subparagraph}{0}
\setcounter{figure}{0}
\setcounter{table}{0}
\setcounter{tabx@nest}{0}
\setcounter{listtotal}{0}
\setcounter{listcount}{0}
\setcounter{liststart}{0}
\setcounter{liststop}{0}
\setcounter{citecount}{0}
\setcounter{citetotal}{0}
\setcounter{multicitecount}{0}
\setcounter{multicitetotal}{0}
\setcounter{instcount}{8}
\setcounter{maxnames}{3}
\setcounter{minnames}{1}
\setcounter{maxitems}{3}
\setcounter{minitems}{1}
\setcounter{citecounter}{0}
\setcounter{savedcitecounter}{0}
\setcounter{uniquelist}{0}
\setcounter{uniquename}{0}
\setcounter{refsection}{0}
\setcounter{refsegment}{0}
\setcounter{maxextratitle}{0}
\setcounter{maxextratitleyear}{0}
\setcounter{maxextrayear}{0}
\setcounter{maxextraalpha}{0}
\setcounter{abbrvpenalty}{50}
\setcounter{highnamepenalty}{50}
\setcounter{lownamepenalty}{25}
\setcounter{maxparens}{3}
\setcounter{parenlevel}{0}
\setcounter{mincomprange}{10}
\setcounter{maxcomprange}{100000}
\setcounter{mincompwidth}{1}
\setcounter{afterword}{0}
\setcounter{savedafterword}{0}
\setcounter{annotator}{0}
\setcounter{savedannotator}{0}
\setcounter{author}{0}
\setcounter{savedauthor}{0}
\setcounter{bookauthor}{0}
\setcounter{savedbookauthor}{0}
\setcounter{commentator}{0}
\setcounter{savedcommentator}{0}
\setcounter{editor}{0}
\setcounter{savededitor}{0}
\setcounter{editora}{0}
\setcounter{savededitora}{0}
\setcounter{editorb}{0}
\setcounter{savededitorb}{0}
\setcounter{editorc}{0}
\setcounter{savededitorc}{0}
\setcounter{foreword}{0}
\setcounter{savedforeword}{0}
\setcounter{holder}{0}
\setcounter{savedholder}{0}
\setcounter{introduction}{0}
\setcounter{savedintroduction}{0}
\setcounter{namea}{0}
\setcounter{savednamea}{0}
\setcounter{nameb}{0}
\setcounter{savednameb}{0}
\setcounter{namec}{0}
\setcounter{savednamec}{0}
\setcounter{translator}{0}
\setcounter{savedtranslator}{0}
\setcounter{shortauthor}{0}
\setcounter{savedshortauthor}{0}
\setcounter{shorteditor}{0}
\setcounter{savedshorteditor}{0}
\setcounter{labelname}{0}
\setcounter{savedlabelname}{0}
\setcounter{institution}{0}
\setcounter{savedinstitution}{0}
\setcounter{lista}{0}
\setcounter{savedlista}{0}
\setcounter{listb}{0}
\setcounter{savedlistb}{0}
\setcounter{listc}{0}
\setcounter{savedlistc}{0}
\setcounter{listd}{0}
\setcounter{savedlistd}{0}
\setcounter{liste}{0}
\setcounter{savedliste}{0}
\setcounter{listf}{0}
\setcounter{savedlistf}{0}
\setcounter{location}{0}
\setcounter{savedlocation}{0}
\setcounter{organization}{0}
\setcounter{savedorganization}{0}
\setcounter{origlocation}{0}
\setcounter{savedoriglocation}{0}
\setcounter{origpublisher}{0}
\setcounter{savedorigpublisher}{0}
\setcounter{publisher}{0}
\setcounter{savedpublisher}{0}
\setcounter{language}{0}
\setcounter{savedlanguage}{0}
\setcounter{pageref}{0}
\setcounter{savedpageref}{0}
\setcounter{textcitecount}{0}
\setcounter{textcitetotal}{0}
\setcounter{textcitemaxnames}{0}
\setcounter{biburlnumpenalty}{0}
\setcounter{biburlucpenalty}{0}
\setcounter{biburllcpenalty}{0}
\setcounter{smartand}{1}
\setcounter{bbx:relatedcount}{0}
\setcounter{bbx:relatedtotal}{0}
\setcounter{Item}{0}
\setcounter{Hfootnote}{0}
\setcounter{bookmark@seq@number}{23}
\setcounter{lstnumber}{1}
\setcounter{parentequation}{0}
\setcounter{float@type}{16}
\setcounter{algorithm}{0}
\setcounter{ALG@line}{0}
\setcounter{ALG@rem}{0}
\setcounter{ALG@nested}{0}
\setcounter{ALG@Lnr}{2}
\setcounter{ALG@blocknr}{10}
\setcounter{ALG@storecount}{0}
\setcounter{ALG@tmpcounter}{0}
\setcounter{section@level}{1}
\setcounter{lstlisting}{0}
}
